Mapas de comparación
…
cantones_st <- distritos_st %>%
  mutate(DTA_C = str_sub(CODIGO,start = 1,end = 3))%>%
  group_by(DTA_C)%>% summarise() %>%
  ungroup() %>% mutate(CCanton=as.numeric(DTA_C))

cantones_st

## Simple feature collection with 81 features and 2 fields
## Geometry type: GEOMETRY
## Dimension:     XY
## Bounding box:  xmin: 283587.8 ymin: 889108 xmax: 658937.7 ymax: 1241131
## Projected CRS: CR05 / CRTM05
## # A tibble: 81 x 3
##    DTA_C                                                        geometry CCanton
##  * <chr>                                                   <POLYGON [m]>   <dbl>
##  1 101   ((494363.5 1095802, 494389 1095789, 494416.1 1095783, 494430.5~     101
##  2 102   ((485770.7 1093238, 485763.1 1093209, 485753.5 1093172, 485729~     102
##  3 103   ((500869.1 1081348, 500884 1081298, 500966.1 1081253, 501080.6~     103
##  4 104   ((463584 1075679, 463585.4 1075629, 463570.7 1075550, 463523.8~     104
##  5 105   ((501201.5 1050294, 501204.7 1046517, 501174.8 1046516, 501056~     105
##  6 106   ((489745.8 1075739, 489731.7 1075665, 489696.7 1075616, 489644~     106
##  7 107   ((478970.2 1093307, 479040.3 1093240, 479077.7 1093203, 479154~     107
##  8 108   ((491407.3 1099532, 491401.7 1099621, 491398.8 1099666, 491388~     108
##  9 109   ((478739.1 1093381, 478652.4 1093437, 478619.7 1093458, 478576~     109
## 10 110   ((488583.9 1091935, 488368.9 1091842, 488329 1091823, 488228.5~     110
## # ... with 71 more rows
…
